<?xml version="1.0" encoding="utf-8"?>
<!-- Generator: Adobe Illustrator 17.1.0, SVG Export Plug-In . SVG Version: 6.00 Build 0)  -->
<!DOCTYPE svg PUBLIC "-//W3C//DTD SVG 1.1//EN" "http://www.w3.org/Graphics/SVG/1.1/DTD/svg11.dtd">
<svg version="1.1" id="Layer_1" xmlns="http://www.w3.org/2000/svg" xmlns:xlink="http://www.w3.org/1999/xlink" x="0px" y="0px"
	 viewBox="3980 3980 40 40" enable-background="new 3980 3980 40 40" xml:space="preserve">
<g>
	<path fill="#9AD0ED" d="M4008.4,3998.2l-10.9,10.9l-6-6v-7.2l6,6l10.9-10.9V3998.2z"/>
</g>
</svg>
