<?xml version="1.0" encoding="utf-8"?>
<!-- Generator: Adobe Illustrator 16.0.2, SVG Export Plug-In . SVG Version: 6.00 Build 0)  -->
<!DOCTYPE svg PUBLIC "-//W3C//DTD SVG 1.1//EN" "http://www.w3.org/Graphics/SVG/1.1/DTD/svg11.dtd">
<svg version="1.1" id="Selected_Items" xmlns="http://www.w3.org/2000/svg" xmlns:xlink="http://www.w3.org/1999/xlink" x="0px"
	 y="0px" width="360px" height="360px" viewBox="0 0 360 360" enable-background="new 0 0 360 360" xml:space="preserve">
<path fill="#1872A2" d="M225.181,353.916c0.791-0.721,1.224-1.584,1.224-2.592c0-2.592-1.296-3.816-3.815-3.816
	c-2.521,0-3.816,1.295-3.816,3.889c0,0.863,0.072,1.512,0.287,1.871c0.504,1.08,1.584,1.584,3.385,1.584
	C223.597,354.924,224.388,354.635,225.181,353.916z M214.452,347.363c0-2.52-1.296-3.816-3.816-3.816
	c-2.52,0-3.815,1.297-3.815,3.889c0,0.863,0.071,1.512,0.288,1.873c0.504,1.078,1.584,1.584,3.384,1.584
	c0.864,0,1.8-0.289,2.592-0.865C214.021,349.379,214.452,348.443,214.452,347.363z M10.188,347.363
	c0.504,1.08,1.729,1.584,3.456,1.584c0.864,0,1.729-0.287,2.521-1.008s1.296-1.584,1.296-2.592c0-2.592-1.296-3.816-3.816-3.816
	c-2.52,0-3.815,1.297-3.815,3.889C9.972,346.355,9.972,347.076,10.188,347.363z M7.164,162.395c1.008,2.017,2.808,3.024,5.472,3.024
	c1.8,0,3.313-0.72,4.464-2.016c1.08-1.224,1.729-2.593,1.729-4.104c0-2.016-0.576-3.455-2.017-4.68
	c-1.224-1.008-2.592-1.512-4.248-1.512c-1.728,0-3.096,0.504-4.248,1.512C7.02,155.7,6.3,157.211,6.3,159.083
	C6.444,160.236,6.66,161.387,7.164,162.395z M11.628,68.868c-2.521,0-3.816,1.296-3.816,3.889c0,0.863,0.072,1.512,0.288,1.871
	c0.504,1.08,1.729,1.584,3.456,1.584c0.864,0,1.8-0.287,2.521-1.008c0.792-0.72,1.224-1.584,1.224-2.592
	C15.444,70.092,14.147,68.795,11.628,68.868z M10.979,23.939c0,0.864,0.072,1.512,0.288,1.872c0.504,1.08,1.729,1.584,3.456,1.584
	c0.864,0,1.8-0.288,2.521-1.008c0.792-0.72,1.224-1.584,1.224-2.592c0-2.52-1.296-3.816-3.815-3.816
	C12.132,19.979,10.979,21.276,10.979,23.939z M60.876,10.835c0.504,1.08,1.584,1.584,3.456,1.584c0.864,0,1.8-0.288,2.52-1.008
	c0.792-0.72,1.225-1.584,1.225-2.592c0-2.52-1.296-3.816-3.816-3.672c-2.52,0-3.815,1.296-3.815,3.888
	C60.588,9.828,60.66,10.476,60.876,10.835z M334.188,304.74c-2.521,0-3.816,1.295-3.816,3.887c0,0.865,0.072,1.514,0.288,1.873
	c0.504,1.08,1.584,1.584,3.384,1.584c0.864,0,1.8-0.289,2.592-0.865c0.792-0.719,1.225-1.584,1.225-2.664
	C337.933,306.035,336.636,304.74,334.188,304.74z M308.988,342.684c-1.296,1.08-2.017,2.592-2.017,4.465
	c0,1.295,0.288,2.375,0.793,3.311c1.008,2.018,2.808,3.025,5.472,3.025c1.8,0,3.312-0.721,4.607-2.018
	c1.08-1.223,1.729-2.592,1.729-4.104c0-2.016-0.576-3.6-1.872-4.752c-1.224-1.008-2.592-1.512-4.248-1.512
	C311.652,341.172,310.14,341.676,308.988,342.684z M349.092,74.844c-2.52,0-3.815,1.295-3.815,3.887
	c0,0.865,0.071,1.513,0.288,1.873c0.504,1.08,1.584,1.584,3.384,1.584c0.864,0,1.8-0.288,2.592-1.008
	c0.792-0.721,1.225-1.584,1.225-2.593C352.908,76.068,351.612,74.772,349.092,74.844z M343.908,16.812
	c0-2.52-1.296-3.816-3.816-3.816c-2.52,0-3.815,1.296-3.815,3.888c0,0.864,0.071,1.512,0.288,1.872
	c0.504,1.08,1.584,1.584,3.384,1.584c0.864,0,1.8-0.288,2.592-1.008C343.548,18.684,343.908,17.892,343.908,16.812z M321.229,18.972
	c1.8,0,3.312-0.72,4.607-2.016c1.08-1.224,1.729-2.592,1.729-4.104c0-2.016-0.576-3.456-1.872-4.68
	c-1.225-1.008-2.592-1.512-4.248-1.512c-1.729,0-3.096,0.504-4.248,1.512c-1.296,1.08-2.017,2.592-2.017,4.464
	c0,1.224,0.288,2.376,0.792,3.384C316.836,17.964,318.636,18.972,321.229,18.972z M359.172,2.771l0.072-0.072v20.736
	c-0.576-0.864-1.584-1.296-3.168-1.296c-2.521,0-3.816,1.296-3.816,3.888c0,0.864,0.072,1.512,0.288,1.872
	c0.504,1.08,1.729,1.584,3.456,1.584c0.864,0,1.729-0.288,2.521-1.008c0.288-0.216,0.504-0.432,0.72-0.72v57.168
	c-2.088,1.871-3.168,4.392-3.168,7.56c0,0.72,0.072,1.368,0.288,2.016c-1.008,0.216-1.8,0.72-2.521,1.296
	c-1.296,1.08-2.016,2.592-2.016,4.465c0,1.295,0.288,2.375,0.792,3.383c1.008,2.017,2.808,3.024,5.472,3.024
	c0.433,0,0.792,0,1.225-0.071v156.888c-0.576-0.289-1.296-0.504-2.16-0.504c-2.521,0-3.816,1.295-3.816,3.887
	c0,0.865,0.072,1.512,0.288,1.873c0.504,1.08,1.584,1.584,3.384,1.584c0.792,0,1.513-0.217,2.16-0.576v11.951
	c-1.512-0.863-3.168-1.295-5.184-1.295c-2.592,0-4.752,0.791-6.552,2.303c-0.504-1.223-1.729-1.799-3.385-1.799
	c-2.52,0-3.815,1.295-3.815,3.887c0,0.865,0.072,1.584,0.288,1.873c0.504,1.08,1.728,1.584,3.456,1.584c0.071,0,0.071,0,0.216,0
	c-0.072,0.719-0.216,1.512-0.216,2.303c0,1.729,0.504,3.385,1.584,5.258c1.8,3.168,4.607,4.752,8.352,4.752
	c2.017,0,3.672-0.434,5.185-1.297v29.016c0,0-0.072,0-0.217,0c-1.728,0-3.096,0.504-4.248,1.512
	c-1.296,1.08-2.016,2.592-2.016,4.465c0,1.225,0.288,2.305,0.792,3.313c1.008,2.016,2.808,3.023,5.4,3.023c0.071,0,0.071,0,0.216,0
	v6.768c-0.72,0.432-1.368,0.793-2.017,1.369c-1.079,1.008-2.016,2.16-2.52,3.6c-0.216-0.289-0.504-0.504-0.792-0.793
	c-1.872-1.727-4.176-2.664-6.84-2.879c-2.521-0.217-4.608,0.287-6.265,1.512c0-0.217,0-0.432,0-0.721
	c0-2.52-1.296-3.816-3.815-3.816c-2.521,0-3.816,1.297-3.816,3.889c0,0.863,0.072,1.512,0.288,1.873
	c0.504,1.08,1.584,1.584,3.384,1.584c0.433,0,0.792-0.072,1.225-0.217c-0.792,1.512-1.225,3.313-1.225,5.4
	c0,0.432,0,0.791,0.072,1.223H294.66c0.216-0.574,0.288-1.295,0.288-2.016c0-2.016-0.576-3.6-1.872-4.752
	c-1.224-1.008-2.592-1.512-4.248-1.512c-1.728,0-3.096,0.504-4.248,1.512c-1.296,1.08-2.016,2.592-2.016,4.465
	c0,0.791,0.071,1.584,0.288,2.305H171.036c-0.216-1.514-0.792-2.809-1.872-3.816c-1.224-1.008-2.592-1.512-4.248-1.512
	c-1.728,0-3.096,0.504-4.248,1.512c-1.079,1.008-1.8,2.16-1.872,3.816h-67.32c1.296-0.217,2.376-0.865,3.385-1.873
	c1.224-1.225,1.8-2.592,1.8-4.104c0-2.016-0.576-3.6-2.017-4.752c-1.224-1.008-2.592-1.512-4.248-1.512
	c-1.655,0-3.096,0.504-4.248,1.512c-1.296,1.08-1.871,2.592-1.871,4.463c0,1.225,0.287,2.305,0.792,3.313
	c0.792,1.584,2.159,2.592,4.104,2.881H47.34c0.072-0.576,0.216-1.297,0.216-1.873c1.8,0,3.313-0.719,4.464-2.016
	c1.08-1.225,1.729-2.592,1.729-4.104c0-2.016-0.576-3.6-2.017-4.752c-1.224-1.008-2.592-1.512-4.247-1.512
	c-1.729,0-3.097,0.504-4.248,1.512c-0.721,0.576-1.225,1.295-1.513,2.088c-1.296-0.576-2.664-1.008-4.176-1.08
	c-2.664-0.217-4.968,0.432-6.84,1.871c-2.088,1.729-3.096,4.248-3.096,7.777c0,0.719,0.071,1.367,0.287,2.16H13.14
	c-0.504-1.514-1.368-2.809-2.592-3.961c-1.872-1.729-4.176-2.664-6.84-2.881c-1.08-0.07-2.088,0-3.024,0.072v-46.584
	c0.288,0,0.576,0,1.009,0c0.863,0,1.728-0.287,2.52-0.863c0.792-0.721,1.296-1.584,1.296-2.664c0-2.52-1.296-3.816-3.815-3.816
	c-0.433,0-0.721,0-1.009,0.072v-158.4c1.729,1.8,4.104,2.808,6.984,2.808c2.088,0,3.888-0.504,5.4-1.368
	c0,0.217,0.071,0.433,0.071,0.504c0.504,1.08,1.729,1.584,3.456,1.584c0.864,0,1.8-0.287,2.521-1.008
	c0.792-0.72,1.08-1.584,1.08-2.592c0-2.376-1.08-3.6-3.168-3.816c0.432-1.08,0.575-2.159,0.575-3.383
	c0-2.664-1.008-4.896-3.096-6.769c-1.872-1.728-4.176-2.664-6.84-2.88c-2.664-0.217-4.968,0.432-6.84,2.016
	c-0.072,0-0.072,0.072-0.072,0.072V36.54c0.864-0.288,1.729-0.863,2.521-1.729c1.224-1.224,1.8-2.591,1.8-4.104
	c0-2.016-0.576-3.456-2.017-4.68c-0.72-0.576-1.367-1.008-2.304-1.296v-10.08c0.576,0.072,1.296,0.216,2.016,0.216
	c1.801,0,3.313-0.72,4.465-2.016c1.224-1.224,1.8-2.592,1.8-4.104c0-2.016-0.576-3.6-2.017-4.68C6.3,3.492,5.652,3.06,4.86,2.844
	C5.147,2.412,5.436,2.052,5.724,1.62C5.939,1.332,6.156,0.9,6.3,0.612h10.872c0.216,0.792,0.576,1.512,1.008,2.304
	c1.729,3.096,4.464,4.68,8.353,4.68c0.432,0,0.792,0,1.296,0c0,0.072,0,0.216,0,0.288c0,0.864,0.071,1.512,0.288,1.872
	c0.504,1.08,1.584,1.584,3.456,1.584c0.863,0,1.8-0.288,2.52-1.008c0.792-0.72,1.224-1.584,1.224-2.592
	c0-1.512-0.504-2.592-1.367-3.168c0.216-0.288,0.432-0.576,0.575-0.864c0.721-1.008,1.225-2.016,1.513-3.024h162.648
	c0,0.288-0.072,0.576-0.072,0.864c0,1.224,0.287,2.376,0.792,3.384c1.008,2.016,2.808,3.024,5.399,3.024
	c1.801,0,3.313-0.72,4.608-2.016c1.08-1.224,1.728-2.592,1.728-4.104c0-0.432,0-0.72-0.071-1.08h20.735
	c-0.216,0.576-0.287,1.224-0.287,1.872c0,1.296,0.287,2.376,0.791,3.384c1.008,2.016,2.809,3.024,5.4,3.024
	c1.801,0,3.313-0.72,4.607-2.016c1.009-1.08,1.584-2.304,1.729-3.672c1.584-0.504,3.024-1.296,4.104-2.592h0.217
	c0.288,0.792,0.576,1.512,1.08,2.304c1.728,3.096,4.464,4.68,8.352,4.68c3.456,0,6.192-1.296,7.992-3.96
	c0.72-1.008,1.224-2.016,1.512-3.024h74.736c0.216,0.432,0.432,0.864,0.72,1.296c1.729,3.096,4.464,4.68,8.353,4.68
	C354.708,6.731,357.372,5.436,359.172,2.771z"/>
<g>
	<path fill="#F8F0DC" d="M240.228,125.208v10.944H119.7v-10.944H240.228z M240.228,158.111H119.7v-10.943h120.527V158.111z
		 M240.228,114.264H119.7V103.32h120.527V114.264z M240.228,201.889H119.7v-10.945h120.527V201.889z M240.228,245.736H119.7v-10.944
		h120.527V245.736z M240.228,223.848H119.7v-10.943h120.527V223.848z M240.228,267.624H119.7V256.68h120.527V267.624z M240.228,180
		H119.7v-10.943h120.527V180z"/>
	<path fill="#F8F0DC" d="M251.172,278.64V81.359H108.756v197.28H251.172z M262.116,289.584H97.813V70.416h164.375v219.168H262.116z"
		/>
</g>
</svg>
