<?xml version="1.0" encoding="utf-8"?>
<!-- Generator: Adobe Illustrator 16.0.2, SVG Export Plug-In . SVG Version: 6.00 Build 0)  -->
<!DOCTYPE svg PUBLIC "-//W3C//DTD SVG 1.1//EN" "http://www.w3.org/Graphics/SVG/1.1/DTD/svg11.dtd">
<svg version="1.1" id="Selected_Items" xmlns="http://www.w3.org/2000/svg" xmlns:xlink="http://www.w3.org/1999/xlink" x="0px"
	 y="0px" width="360px" height="360px" viewBox="0 0 360 360" enable-background="new 0 0 360 360" xml:space="preserve">
<path fill="#1872A2" d="M225.359,354.563c0.793-0.72,1.225-1.584,1.225-2.592c0-2.592-1.296-3.815-3.816-3.815
	c-2.52,0-3.815,1.296-3.815,3.888c0,0.936,0.071,1.512,0.288,1.872c0.504,1.08,1.584,1.584,3.384,1.584
	C223.775,355.572,224.568,355.284,225.359,354.563z M214.561,347.939c0-2.52-1.297-3.815-3.816-3.815s-3.816,1.296-3.816,3.888
	c0,0.937,0.072,1.512,0.288,1.872c0.505,1.08,1.584,1.584,3.384,1.584c0.937,0,1.801-0.288,2.592-0.936
	C214.128,349.956,214.561,349.092,214.561,347.939z M9.432,347.939c0.504,1.08,1.729,1.584,3.528,1.584
	c0.936,0,1.728-0.287,2.52-1.008c0.792-0.72,1.296-1.584,1.296-2.592c0-2.592-1.296-3.815-3.815-3.815
	c-2.521,0-3.816,1.296-3.816,3.888C9.216,347.004,9.216,347.652,9.432,347.939z M6.479,162.252c1.008,2.017,2.809,3.024,5.473,3.024
	c1.8,0,3.312-0.721,4.535-2.017c1.08-1.224,1.729-2.592,1.729-4.104c0-2.016-0.576-3.527-2.016-4.68
	c-1.225-1.008-2.593-1.512-4.32-1.512c-1.729,0-3.096,0.504-4.32,1.512c-1.296,1.08-2.016,2.592-2.016,4.536
	C5.76,160.092,5.976,161.244,6.479,162.252z M10.943,68.364c-2.52,0-3.815,1.295-3.815,3.888c0,0.937,0.072,1.512,0.288,1.872
	c0.504,1.08,1.728,1.584,3.527,1.584c0.937,0,1.801-0.288,2.521-1.008c0.792-0.721,1.224-1.584,1.224-2.592
	C14.76,69.588,13.464,68.292,10.943,68.364z M10.224,23.292c0,0.936,0.072,1.512,0.288,1.872c0.504,1.08,1.729,1.584,3.528,1.584
	c0.936,0,1.8-0.288,2.52-1.008c0.792-0.72,1.225-1.584,1.225-2.592c0-2.52-1.297-3.816-3.816-3.816S10.224,20.556,10.224,23.292z
	 M60.336,10.044c0.504,1.08,1.584,1.584,3.527,1.584c0.937,0,1.801-0.288,2.521-1.008c0.792-0.72,1.224-1.584,1.224-2.592
	c0-2.52-1.296-3.816-3.815-3.672c-2.521,0-3.816,1.296-3.816,3.888C60.048,9.036,60.12,9.756,60.336,10.044z M334.729,305.172
	c-2.521,0-3.816,1.296-3.816,3.888c0,0.937,0.072,1.513,0.288,1.872c0.504,1.08,1.584,1.584,3.384,1.584
	c0.937,0,1.8-0.288,2.592-0.936c0.792-0.72,1.225-1.584,1.225-2.736C338.544,306.468,337.248,305.172,334.729,305.172z
	 M309.456,343.26c-1.296,1.08-2.016,2.592-2.016,4.536c0,1.296,0.287,2.376,0.792,3.312c1.008,2.017,2.808,3.024,5.472,3.024
	c1.8,0,3.312-0.72,4.608-2.016c1.079-1.225,1.728-2.593,1.728-4.104c0-2.016-0.576-3.6-1.872-4.824
	c-1.224-1.008-2.592-1.512-4.32-1.512C312.12,341.748,310.68,342.252,309.456,343.26z M349.776,74.34
	c-2.521,0-3.816,1.296-3.816,3.888c0,0.937,0.072,1.512,0.288,1.872c0.504,1.08,1.584,1.585,3.384,1.585
	c0.937,0,1.8-0.289,2.592-1.009s1.225-1.584,1.225-2.592C353.52,75.563,352.224,74.269,349.776,74.34z M344.52,16.092
	c0-2.52-1.296-3.816-3.815-3.816c-2.521,0-3.816,1.296-3.816,3.888c0,0.936,0.072,1.512,0.288,1.872
	c0.504,1.08,1.584,1.584,3.385,1.584c0.936,0,1.8-0.288,2.592-1.008C344.16,17.964,344.52,17.172,344.52,16.092z M321.768,18.252
	c1.801,0,3.313-0.72,4.608-2.016c1.08-1.224,1.728-2.592,1.728-4.104c0-2.016-0.575-3.528-1.871-4.68
	c-1.225-1.008-2.593-1.512-4.32-1.512c-1.729,0-3.096,0.504-4.32,1.512c-1.296,1.08-2.016,2.592-2.016,4.536
	c0,1.224,0.288,2.376,0.792,3.384C317.376,17.244,319.176,18.252,321.768,18.252z M359.856,1.98l0.071-0.072v20.808
	c-0.576-0.936-1.584-1.296-3.168-1.296c-2.52,0-3.815,1.296-3.815,3.888c0,0.936,0.071,1.512,0.288,1.872
	c0.504,1.08,1.728,1.584,3.527,1.584c0.937,0,1.729-0.288,2.521-1.008c0.288-0.216,0.504-0.432,0.72-0.72V84.42
	c-2.088,1.872-3.168,4.392-3.168,7.632c0,0.721,0.072,1.368,0.288,2.016c-1.008,0.217-1.8,0.721-2.521,1.297
	c-1.296,1.08-2.016,2.592-2.016,4.535c0,1.297,0.288,2.377,0.792,3.385c1.008,2.016,2.808,3.023,5.472,3.023
	c0.433,0,0.792,0,1.225-0.072v157.536c-0.576-0.288-1.296-0.504-2.232-0.504c-2.52,0-3.815,1.296-3.815,3.889
	c0,0.936,0.071,1.512,0.288,1.872c0.504,1.079,1.584,1.584,3.384,1.584c0.792,0,1.512-0.217,2.231-0.576v12.023
	c-1.512-0.936-3.168-1.296-5.184-1.296c-2.592,0-4.824,0.792-6.624,2.305c-0.504-1.225-1.729-1.801-3.384-1.801
	c-2.521,0-3.816,1.296-3.816,3.889c0,0.936,0.072,1.584,0.288,1.872c0.504,1.08,1.728,1.584,3.528,1.584c0.071,0,0.071,0,0.216,0
	c-0.072,0.72-0.216,1.512-0.216,2.304c0,1.728,0.504,3.384,1.584,5.328c1.8,3.168,4.607,4.824,8.424,4.824
	c2.016,0,3.672-0.433,5.184-1.297v29.089c0,0-0.071,0-0.216,0c-1.728,0-3.096,0.504-4.319,1.512
	c-1.297,1.08-2.017,2.592-2.017,4.536c0,1.224,0.288,2.304,0.792,3.312c1.008,2.017,2.809,3.024,5.4,3.024c0.071,0,0.071,0,0.216,0
	v6.768c-0.72,0.433-1.368,0.792-2.017,1.368c-1.079,1.008-2.016,2.232-2.52,3.6c-0.216-0.287-0.504-0.504-0.792-0.791
	c-1.872-1.729-4.176-2.736-6.912-2.881c-2.52-0.216-4.607,0.288-6.336,1.513c0-0.217,0-0.433,0-0.721
	c0-2.52-1.296-3.815-3.815-3.815c-2.521,0-3.816,1.296-3.816,3.888c0,0.937,0.072,1.512,0.288,1.872
	c0.504,1.08,1.584,1.584,3.384,1.584c0.432,0,0.792-0.072,1.225-0.216c-0.793,1.512-1.225,3.312-1.225,5.399
	c0,0.433,0,0.792,0.072,1.225h-42.192c0.216-0.576,0.288-1.296,0.288-2.016c0-2.017-0.576-3.601-1.872-4.824
	c-1.224-1.008-2.592-1.513-4.319-1.513c-1.729,0-3.097,0.505-4.32,1.513c-1.296,1.08-2.017,2.592-2.017,4.536
	c0,0.792,0.072,1.584,0.288,2.304H170.928c-0.216-1.512-0.791-2.809-1.871-3.816c-1.225-1.008-2.593-1.512-4.32-1.512
	c-1.729,0-3.096,0.504-4.32,1.512c-1.08,1.008-1.8,2.232-1.872,3.816H90.936c1.296-0.216,2.376-0.937,3.384-1.872
	c1.225-1.224,1.801-2.592,1.801-4.104c0-2.016-0.576-3.6-2.017-4.823c-1.224-1.009-2.592-1.513-4.319-1.513
	c-1.729,0-3.097,0.504-4.32,1.513c-1.296,1.08-1.872,2.592-1.872,4.536c0,1.224,0.288,2.304,0.792,3.312
	c0.792,1.584,2.232,2.592,4.104,2.88H46.512c0.072-0.576,0.216-1.296,0.216-1.872c1.8,0,3.313-0.72,4.536-2.016
	c1.08-1.225,1.729-2.592,1.729-4.104c0-2.016-0.576-3.6-2.017-4.823c-1.224-1.009-2.592-1.513-4.32-1.513
	c-1.728,0-3.096,0.504-4.319,1.513c-0.72,0.575-1.225,1.296-1.512,2.088c-1.297-0.576-2.736-1.009-4.177-1.08
	c-2.735-0.216-4.968,0.432-6.912,1.872c-2.088,1.728-3.096,4.319-3.096,7.775c0,0.721,0.072,1.368,0.288,2.232H12.456
	c-0.504-1.512-1.368-2.809-2.593-4.032c-1.871-1.728-4.176-2.736-6.911-2.88c-1.08-0.072-2.089,0-3.024,0.072v-46.729
	c0.288,0,0.576,0,1.008,0c0.937,0,1.729-0.288,2.521-0.936c0.792-0.721,1.296-1.584,1.296-2.736c0-2.52-1.296-3.816-3.816-3.816
	c-0.432,0-0.72,0-1.008,0.072V140.147c1.729,1.801,4.104,2.809,6.984,2.809c2.088,0,3.888-0.504,5.399-1.368
	c0,0.216,0.072,0.433,0.072,0.504c0.504,1.08,1.728,1.584,3.528,1.584c0.936,0,1.8-0.288,2.52-1.008
	c0.792-0.72,1.08-1.584,1.08-2.592c0-2.376-1.08-3.601-3.168-3.816c0.432-1.08,0.576-2.231,0.576-3.384
	c0-2.736-1.008-4.896-3.096-6.768c-1.872-1.729-4.177-2.736-6.912-2.881c-2.736-0.216-4.969,0.433-6.912,2.017
	c-0.072,0-0.072,0.071-0.072,0.071V35.892c0.937-0.287,1.729-0.936,2.521-1.728c1.224-1.224,1.8-2.592,1.8-4.104
	c0-2.016-0.576-3.528-2.017-4.68c-0.72-0.576-1.367-1.008-2.304-1.296v-10.08c0.576,0.072,1.296,0.216,2.016,0.216
	c1.801,0,3.313-0.72,4.536-2.016c1.225-1.224,1.8-2.592,1.8-4.104c0-2.016-0.575-3.6-2.016-4.68
	c-0.72-0.576-1.368-1.008-2.231-1.224c0.287-0.432,0.575-0.792,0.936-1.224c0.216-0.288,0.432-0.72,0.576-1.008h10.872
	c0.216,0.792,0.576,1.512,1.008,2.304c1.728,3.096,4.536,4.68,8.424,4.68c0.432,0,0.792,0,1.296,0c0,0.072,0,0.216,0,0.288
	c0,0.936,0.072,1.512,0.288,1.872c0.504,1.08,1.584,1.584,3.528,1.584c0.936,0,1.8-0.288,2.52-1.008
	c0.792-0.72,1.225-1.584,1.225-2.592c0-1.512-0.504-2.592-1.368-3.168c0.216-0.288,0.432-0.576,0.576-0.936
	c0.72-1.008,1.224-2.016,1.512-3.024h163.297c0,0.288-0.072,0.576-0.072,0.936c0,1.224,0.287,2.376,0.791,3.384
	c1.009,2.016,2.809,3.024,5.4,3.024c1.801,0,3.313-0.72,4.608-2.016c1.079-1.224,1.728-2.592,1.728-4.104c0-0.432,0-0.72-0.072-1.08
	h20.809c-0.217,0.576-0.288,1.224-0.288,1.872c0,1.296,0.288,2.376,0.792,3.384c1.008,2.016,2.809,3.024,5.4,3.024
	c1.8,0,3.312-0.72,4.607-2.016c1.008-1.08,1.584-2.304,1.729-3.672c1.584-0.504,3.023-1.296,4.104-2.592h0.217
	c0.287,0.792,0.575,1.512,1.079,2.304c1.729,3.096,4.536,4.68,8.424,4.68c3.528,0,6.192-1.296,7.992-4.032
	c0.72-1.008,1.225-2.016,1.513-3.024h75.384c0.216,0.432,0.432,0.936,0.72,1.296c1.729,3.096,4.536,4.68,8.424,4.68
	C355.32,5.94,358.056,4.644,359.856,1.98z"/>
<g>
	<path fill="#F8F0DC" d="M119.521,103.032h120.96v32.976h-120.96V103.032z M240.48,147.023V180h-43.992v-32.977H240.48z
		 M185.473,147.023v11.017h-65.952v-11.017H185.473z M240.48,202.032h-120.96v-11.017h120.96V202.032L240.48,202.032z
		 M240.48,223.992h-76.969v-11.016h76.969V223.992L240.48,223.992z M185.473,180h-65.952v-11.016h66.023V180H185.473z
		 M163.512,235.008h76.969v11.016h-76.969V235.008z M163.512,256.968h76.969v11.017h-76.969V256.968z M152.496,212.977v55.008
		h-32.976v-55.008H152.496L152.496,212.977z"/>
	<path fill="#F8F0DC" d="M262.512,69.984v220.031H97.488V69.984H262.512z M251.496,81H108.504v198h142.992V81z"/>
</g>
</svg>
