<?xml version="1.0" encoding="utf-8"?>
<!-- Generator: Adobe Illustrator 17.1.0, SVG Export Plug-In . SVG Version: 6.00 Build 0)  -->
<!DOCTYPE svg PUBLIC "-//W3C//DTD SVG 1.1//EN" "http://www.w3.org/Graphics/SVG/1.1/DTD/svg11.dtd">
<svg version="1.1" id="Layer_1" xmlns="http://www.w3.org/2000/svg" xmlns:xlink="http://www.w3.org/1999/xlink" x="0px" y="0px"
	 viewBox="165 165 30 30" enable-background="new 165 165 30 30" xml:space="preserve">
<g>
	<polygon fill="#052130" points="184.7,185.5 182.6,185.5 182,184.9 182,175.2 182.6,174.5 184.8,174.5 185.5,175.2 185.5,184.8 	
		"/>
	<polygon fill="#052130" points="177.3,185.5 175.2,185.5 174.5,184.9 174.5,175.2 175.2,174.5 177.3,174.5 178,175.2 178,184.8 	
		"/>
</g>
</svg>
