<?xml version="1.0" encoding="utf-8"?>
<!-- Generator: Adobe Illustrator 17.1.0, SVG Export Plug-In . SVG Version: 6.00 Build 0)  -->
<!DOCTYPE svg PUBLIC "-//W3C//DTD SVG 1.1//EN" "http://www.w3.org/Graphics/SVG/1.1/DTD/svg11.dtd">
<svg version="1.1" id="Layer_1" xmlns="http://www.w3.org/2000/svg" xmlns:xlink="http://www.w3.org/1999/xlink" x="0px" y="0px"
	 viewBox="165 165 30 30" enable-background="new 165 165 30 30" xml:space="preserve">
<g>
	<path fill="#052130" d="M177.5,185.5l-1.6-1l0-8.8l1.6-1.1l6.6,5.5L177.5,185.5z"/>
</g>
</svg>
