<?xml version="1.0" encoding="utf-8"?>
<!-- Generator: Adobe Illustrator 17.1.0, SVG Export Plug-In . SVG Version: 6.00 Build 0)  -->
<!DOCTYPE svg PUBLIC "-//W3C//DTD SVG 1.1//EN" "http://www.w3.org/Graphics/SVG/1.1/DTD/svg11.dtd">
<svg version="1.1" id="Layer_1" xmlns="http://www.w3.org/2000/svg" xmlns:xlink="http://www.w3.org/1999/xlink" x="0px" y="0px"
	 viewBox="165 165 30 30" enable-background="new 165 165 30 30" xml:space="preserve">
<g>
	<polygon fill="#052130" points="177.4,185.2 175.4,185.2 174.8,184.7 174.8,175.4 175.4,174.8 177.5,174.8 178.1,175.4 
		178.1,184.6 	"/>
	<g>
		<path fill="#052130" d="M177.4,180l6.3-5.2l1.5,1l0,8.4l-1.5,1L177.4,180z"/>
	</g>
</g>
</svg>
