<?xml version="1.0" encoding="utf-8"?>
<!-- Generator: Adobe Illustrator 16.0.2, SVG Export Plug-In . SVG Version: 6.00 Build 0)  -->
<!DOCTYPE svg PUBLIC "-//W3C//DTD SVG 1.1//EN" "http://www.w3.org/Graphics/SVG/1.1/DTD/svg11.dtd">
<svg version="1.1" id="Layer_1" xmlns="http://www.w3.org/2000/svg" xmlns:xlink="http://www.w3.org/1999/xlink" x="0px" y="0px"
	 width="360px" height="360px" viewBox="0 0 360 360" enable-background="new 0 0 360 360" xml:space="preserve">
<g>
	<path fill="#F8F0DC" d="M205.264,150.465c0.98,1.325,3.496,4.131,7.545,8.418c2.104,1.206,4.383,3.006,6.854,5.401
		c3.72,3.617,6.698,6.354,8.95,8.216c1.371,1.13,3.229,2.144,5.584,3.036c2.898,1.101,6.277,1.906,10.135,2.411
		c3.361,17.68,3.361,35.36,0,53.047l-24.824,13.951c-13.77,1.158-26.805,3.854-39.115,8.08c-5.507,1.369-11.03,1.885-16.563,1.543
		c-4.497-0.283-10.018-1.244-16.565-2.883l-9.916-4.979c-2.673-1.164-4.326-3.229-4.953-6.208v-4.511l-5.606-3.557
		c-3.99-1.799-6.057-5.105-6.205-9.93l1.112-7.461l-5.447-5.578l-3.101-6.162c0.165-3.229,1.302-6.027,3.418-8.395l6.56-2.545
		c0.834-1.146,0.834-2.076,0-2.791l-5.021-7.076v-5.27c1.311-2.931,3.375-5.505,6.207-7.724l6.497-1.272
		c2.573,0.252,5.141,0.208,7.699-0.134c2.099-0.283,5.425-0.96,9.981-2.033c3.035-1.456,6.326-2.441,9.867-2.946
		c2.604-0.372,6.645-0.604,12.123-0.693c3.124-3.244,4.928-6.451,5.405-9.621c0.47-3.29-0.293-7.531-2.301-12.726
		c-3.487-6.059-5.791-11.43-6.923-16.119c-1.205-5.045-0.743-9.592,1.385-13.642c3.084-5.685,6.789-6.519,11.119-2.5
		c1.026,2.768,2.405,5.522,4.131,8.261c0.983,1.563,2.396,3.633,4.241,6.206c2.021,2.978,4.063,5.41,6.119,7.303
		c1.964,1.798,3.632,3.771,4.998,5.913c1.396,2.203,2.377,4.414,2.945,6.632C202.049,144.997,203.268,147.771,205.264,150.465z"/>
</g>
</svg>
